-------------------------------------------------------------------------------
Test set: com.db.demomidtier.UtilsTest
-------------------------------------------------------------------------------
Tests run: 15, Failures: 0, Errors: 0, Skipped: 0, Time elapsed: 1.145 sec
